<?xml version="1.0" encoding="UTF-8" standalone="no"?>
<!-- Created with Inkscape (http://www.inkscape.org/) -->

<svg
   xmlns:dc="http://purl.org/dc/elements/1.1/"
   xmlns:cc="http://creativecommons.org/ns#"
   xmlns:rdf="http://www.w3.org/1999/02/22-rdf-syntax-ns#"
   xmlns:svg="http://www.w3.org/2000/svg"
   xmlns="http://www.w3.org/2000/svg"
   xmlns:sodipodi="http://sodipodi.sourceforge.net/DTD/sodipodi-0.dtd"
   xmlns:inkscape="http://www.inkscape.org/namespaces/inkscape"
   width="16"
   height="16"
   viewBox="0 0 4.2333332 4.2333335"
   version="1.1"
   id="svg3773"
   inkscape:version="0.92.4 (5da689c313, 2019-01-14)"
   sodipodi:docname="picasso_sculpt.svg">
  <defs
     id="defs3767" />
  <sodipodi:namedview
     id="base"
     pagecolor="#ffffff"
     bordercolor="#666666"
     borderopacity="1.0"
     inkscape:pageopacity="0.0"
     inkscape:pageshadow="2"
     inkscape:zoom="22.627417"
     inkscape:cx="12.86673"
     inkscape:cy="1.4289643"
     inkscape:document-units="mm"
     inkscape:current-layer="layer1"
     showgrid="false"
     units="px"
     inkscape:window-width="1680"
     inkscape:window-height="987"
     inkscape:window-x="-8"
     inkscape:window-y="13"
     inkscape:window-maximized="1" />
  <metadata
     id="metadata3770">
    <rdf:RDF>
      <cc:Work
         rdf:about="">
        <dc:format>image/svg+xml</dc:format>
        <dc:type
           rdf:resource="http://purl.org/dc/dcmitype/StillImage" />
        <dc:title></dc:title>
      </cc:Work>
    </rdf:RDF>
  </metadata>
  <g
     inkscape:label="Calque 1"
     inkscape:groupmode="layer"
     id="layer1"
     transform="translate(0,-292.76665)">
    <path
       style="display:inline;fill:#000000;fill-opacity:1;fill-rule:evenodd;stroke:#000000;stroke-width:0.01807556px;stroke-linecap:butt;stroke-linejoin:miter;stroke-opacity:1"
       d="m 1.9173144,296.62496 0.7294779,0.15008 c 0.7534464,0.0466 0.6745588,-0.17621 0.6842886,-0.36151 0.013808,-0.26285 0.053554,-0.36965 0.1161999,-0.46479 l -0.090378,-0.24531 0.503533,0.0517 -0.7488443,-2.14324 -0.3873331,0.0645 c 0,0 0.034345,-0.14182 -0.012912,-0.16784 -0.1408519,-0.0776 -0.555178,-0.15494 -0.555178,-0.15494 l -0.051641,-0.52936 -0.7359329,0.94252 0.3744222,-0.14202 z"
       id="path3321"
       sodipodi:nodetypes="ccscccccsccccc"
       inkscape:connector-curvature="0" />
    <path
       inkscape:connector-curvature="0"
       style="display:inline;fill:#ffffff;fill-opacity:1;fill-rule:evenodd;stroke:none;stroke-width:0.0723022;stroke-linecap:round;stroke-linejoin:round;stroke-miterlimit:4;stroke-dasharray:none;stroke-opacity:1"
       d="m 2.4124556,294.28424 c -0.048182,-0.001 -0.09586,-7.6e-4 -0.1423448,0.002 -0.019968,7.6e-4 -0.035141,0.0184 -0.033896,0.0383 0.00121,0.0199 0.00553,0.009 0.025499,0.008 0.3455205,-0.0213 0.7473363,0.0967 0.99585,0.43937 -0.1586393,0.17616 -0.3196827,0.2107 -0.503049,0.20932 -0.1781815,-7.6e-4 -0.3378813,-0.0867 -0.4437393,-0.19414 -0.00902,-0.009 -0.022456,-0.0134 -0.035134,-0.0102 -0.012678,0.003 -0.022623,0.0131 -0.025999,0.0257 -0.00334,0.0127 3.483e-4,0.0261 0.00973,0.0353 0.1179343,0.11969 0.2980125,0.2184 0.4959479,0.23499 0.1979348,0.0166 0.4135841,-0.0523 0.5902788,-0.26266 0.010379,-0.0123 0.011304,-0.0301 0.00228,-0.0435 -0.2311784,-0.33901 -0.5981021,-0.47025 -0.9354099,-0.48239 z"
       id="path3361"
       sodipodi:nodetypes="cssccscsscsscc" />
    <path
       inkscape:connector-curvature="0"
       style="display:inline;fill:#ffffff;fill-opacity:1;fill-rule:nonzero;stroke:none;stroke-width:0.0723022;stroke-linecap:round;stroke-linejoin:round;stroke-miterlimit:4;stroke-dasharray:none;stroke-dashoffset:0;stroke-opacity:1"
       d="m 2.6563946,294.45341 c -0.1017633,-0.0208 -0.1518735,-0.0159 -0.1966928,0.0339 -0.033024,0.0367 -0.049017,0.0689 -0.049017,0.1206 0,0.1065 0.1041872,0.19888 0.2392588,0.22014 0.1350715,0.0212 0.2527341,-0.0361 0.2527349,-0.14267 0,-0.10649 -0.111208,-0.21068 -0.2462795,-0.23195 z m 0,0.0575 c 0.096554,0.0153 0.1481554,0.079 0.1481554,0.15386 0,0.0749 -0.045147,0.10758 -0.1416999,0.0924 -0.096554,-0.0153 -0.1507174,-0.062 -0.179868,-0.13786 -0.012329,-0.0321 0.01496,-0.0828 0.040042,-0.10136 0.034822,-0.0258 0.075653,-0.0161 0.1333752,-0.007 z"
       id="path3367"
       sodipodi:nodetypes="cssssccssssc" />
    <path
       inkscape:connector-curvature="0"
       style="display:inline;fill:#ffffff;fill-opacity:1;fill-rule:evenodd;stroke:none;stroke-width:0.1084533;stroke-linecap:butt;stroke-linejoin:miter;stroke-miterlimit:4;stroke-dasharray:none;stroke-opacity:1"
       d="m 2.2650271,293.86794 -0.011297,0.10789 c 0.4110001,0.042 0.750829,0.19952 1.0263525,0.47504 l 0.055716,-0.0631 c -0.021918,-0.0265 -0.049526,-0.058 -0.062278,-0.0872 0.031765,-0.0648 -0.017313,-0.12161 -0.1344169,-0.0978 0.010796,-0.0822 0.1104653,-0.12618 -0.1747835,-0.12175 0.050739,-0.10767 0.026948,-0.0995 -0.1629044,-0.0806 -0.028746,-0.0725 -0.065306,-0.0225 -0.1023354,-0.0417 0.012927,-0.10895 -0.068074,-0.12122 -0.2227065,-0.0444 -0.024603,-0.005 -0.042515,-0.003 -0.054654,-0.0226 -0.026113,-0.12154 -0.1078986,-0.0682 -0.1566879,-0.0235 z"
       id="path3375"
       sodipodi:nodetypes="cccccccccccc" />
    <path
       style="display:inline;opacity:1;fill:#000000;fill-opacity:1;fill-rule:evenodd;stroke:none;stroke-width:0.0723022;stroke-linecap:butt;stroke-linejoin:miter;stroke-miterlimit:4;stroke-dasharray:none;stroke-opacity:1"
       d="m 1.7385763,293.59116 c -0.6512834,0.23402 -1.19605113,0.70586 -1.36018528,1.25569 -0.082067,0.27491 -0.0672315,0.56948 0.078516,0.85689 0.145747,0.2874 0.41019554,0.58178 0.73043678,0.74213 0.3308899,0.14508 0.5275758,0.16759 0.7235153,0.18716 l -0.00241,-0.12062 c -0.1024597,-0.002 -0.3737077,-0.017 -0.6574817,-0.13484 -0.28848181,-0.14899 -0.5913918,-0.43506 -0.72909103,-0.70659 -0.13769969,-0.27155 -0.15137298,-0.5446 -0.0739965,-0.80381 0.15475226,-0.51839 0.68088503,-0.98038 1.31499653,-1.20822 z"
       id="path3290"
       sodipodi:nodetypes="cssccccsscc"
       inkscape:connector-curvature="0" />
    <path
       inkscape:connector-curvature="0"
       style="display:inline;opacity:1;fill:#ffffff;fill-opacity:1;fill-rule:evenodd;stroke:none;stroke-width:0.09037775;stroke-linecap:butt;stroke-linejoin:miter;stroke-miterlimit:4;stroke-dasharray:none;stroke-opacity:1"
       d="m 2.1334143,295.63354 -0.2259447,0.19673 0.013559,0.10764 c 0.093504,-0.0797 0.1656927,-0.14192 0.2259445,-0.1935 z"
       id="path3302"
       sodipodi:nodetypes="ccccc" />
    <ellipse
       ry="0.35505548"
       rx="0.36151099"
       cy="294.81897"
       cx="1.1878369"
       style="display:inline;opacity:1;fill:#000000;fill-opacity:1;fill-rule:nonzero;stroke:#000000;stroke-width:0.09037775;stroke-linecap:round;stroke-linejoin:round;stroke-miterlimit:4;stroke-dasharray:none;stroke-dashoffset:0;stroke-opacity:1"
       id="path3323" />
    <ellipse
       ry="0.20012219"
       rx="0.20012216"
       cy="294.79962"
       cx="1.1813818"
       style="display:inline;opacity:1;fill:#000000;fill-opacity:1;fill-rule:nonzero;stroke:#ffffff;stroke-width:0.09037775;stroke-linecap:round;stroke-linejoin:round;stroke-miterlimit:4;stroke-dasharray:none;stroke-dashoffset:0;stroke-opacity:1"
       id="path3326" />
    <path
       inkscape:connector-curvature="0"
       style="display:inline;opacity:1;fill:#ffffff;fill-opacity:1;fill-rule:evenodd;stroke:none;stroke-width:0.09037775;stroke-linecap:butt;stroke-linejoin:miter;stroke-miterlimit:4;stroke-dasharray:none;stroke-opacity:1"
       d="m 2.1819919,292.80318 -0.090378,0.003 0.1157963,2.97569 -0.2971163,0.51855 0.078516,0.0446 0.3033301,-0.52927 0.00675,-0.0113 -5.591e-4,-0.0129 z"
       id="path3296" />
  </g>
</svg>
